IS415-GAA - Take Home Exercise 2
…
tha_drug_offences <- read_csv("data/thai_drug_offenses_2017_2022.csv")

Rows: 7392 Columns: 5
── Column specification ────────────────────────────────────────────────────────
Delimiter: ","
chr (3): types_of_drug_offenses, province_th, province_en
dbl (2): fiscal_year, no_cases

ℹ Use `spec()` to retrieve the full column specification for this data.
ℹ Specify the column types or set `show_col_types = FALSE` to quiet this message.

tha_drug_offences

# A tibble: 7,392 × 5
   fiscal_year types_of_drug_offenses no_cases province_th   province_en        
         <dbl> <chr>                     <dbl> <chr>         <chr>              
 1        2017 drug_use_cases            11871 กรุงเทพมหานคร  Bangkok            
 2        2017 drug_use_cases              200 ชัยนาท         Chai Nat           
 3        2017 drug_use_cases              553 นนทบุรี         Nonthaburi         
 4        2017 drug_use_cases              450 ปทุมธานี        Pathum Thani       
 5        2017 drug_use_cases              378 พระนครศรีอยุธยา Phra Nakhon Si Ayu…
 6        2017 drug_use_cases              727 ลพบุรี          Loburi             
 7        2017 drug_use_cases              820 สมุทรปราการ    Samut Prakan       
 8        2017 drug_use_cases               69 สระบุรี         Saraburi           
 9        2017 drug_use_cases              127 สิงห์บุรี         Sing Buri          
10        2017 drug_use_cases              208 อ่างทอง        Ang Thong          
# ℹ 7,382 more rows
…
Provinces in drug data but not in spatial data:

cat("Provinces in spatial data but not in drug data:\n", mismatched_spatial_provinces, "\n")

Provinces in spatial data but not in drug data:

4.2 Drop redundant columns

To reduce the memory load, we can drop columns which are not relevant for this study and store only relevant columns

tha_drug_offences <- subset(tha_drug_offences, select = c(fiscal_year, province_en, no_cases, types_of_drug_offenses))

tha_drug_offences

# A tibble: 7,392 × 4
   fiscal_year province_en              no_cases types_of_drug_offenses
         <dbl> <chr>                       <dbl> <chr>                 
 1        2017 Bangkok                     11871 drug_use_cases        
 2        2017 Chai Nat                      200 drug_use_cases        
 3        2017 Nonthaburi                    553 drug_use_cases        
 4        2017 Pathum Thani                  450 drug_use_cases        
 5        2017 Phra Nakhon Si Ayutthaya      378 drug_use_cases        
 6        2017 Lop Buri                      727 drug_use_cases        
 7        2017 Samut Prakan                  820 drug_use_cases        
 8        2017 Saraburi                       69 drug_use_cases        
 9        2017 Sing Buri                     127 drug_use_cases        
10        2017 Ang Thong                     208 drug_use_cases        
# ℹ 7,382 more rows
…
drug_offense_summary <- thai_province %>%
  group_by(ADM1_EN, types_of_drug_offenses) %>%
  summarise(total_cases = sum(no_cases, na.rm = TRUE), .groups = 'drop')
drug_offense_summary

Simple feature collection with 1232 features and 3 fields
Geometry type: MULTIPOLYGON
Dimension:     XY
Bounding box:  xmin: 325178.8 ymin: 620860.6 xmax: 1213656 ymax: 2263241
Projected CRS: WGS 84 / UTM zone 47N
# A tibble: 1,232 × 4
   ADM1_EN       types_of_drug_offenses    total_cases                  geometry
   <chr>         <chr>                           <dbl>        <MULTIPOLYGON [m]>
 1 Amnat Charoen conspiracy_cases                    5 (((1137720 1809629, 1137…
 2 Amnat Charoen drug_use_cases                  11695 (((1137720 1809629, 1137…
 3 Amnat Charoen export_cases                        0 (((1137720 1809629, 1137…
 4 Amnat Charoen import_cases                        9 (((1137720 1809629, 1137…
 5 Amnat Charoen possession_cases                 2127 (((1137720 1809629, 1137…
 6 Amnat Charoen possession_with_intent_t…        2298 (((1137720 1809629, 1137…
 7 Amnat Charoen production_cases                  280 (((1137720 1809629, 1137…
 8 Amnat Charoen suspects_in_conspiracy_c…          13 (((1137720 1809629, 1137…
 9 Amnat Charoen suspects_in_drug_use_cas…       11829 (((1137720 1809629, 1137…
10 Amnat Charoen suspects_in_export_cases            0 (((1137720 1809629, 1137…
# ℹ 1,222 more rows
…
# View the drug abuse indicators layer
drug_abuse_indicators_summary

Simple feature collection with 2310 features and 4 fields
Geometry type: MULTIPOLYGON
Dimension:     XY
Bounding box:  xmin: 325178.8 ymin: 620860.6 xmax: 1213656 ymax: 2263241
Projected CRS: WGS 84 / UTM zone 47N
# A tibble: 2,310 × 5
   ADM1_EN       fiscal_year types_of_drug_offenses                  total_cases
   <chr>               <dbl> <chr>                                         <dbl>
 1 Amnat Charoen        2017 drug_use_cases                                 1734
 2 Amnat Charoen        2017 possession_cases                                293
 3 Amnat Charoen        2017 possession_with_intent_to_distribute_c…         241
 4 Amnat Charoen        2017 production_cases                                 14
 5 Amnat Charoen        2017 trafficking_cases                               211
 6 Amnat Charoen        2018 drug_use_cases                                 2038
 7 Amnat Charoen        2018 possession_cases                                307
 8 Amnat Charoen        2018 possession_with_intent_to_distribute_c…         269
 9 Amnat Charoen        2018 production_cases                                 11
10 Amnat Charoen        2018 trafficking_cases                               143
# ℹ 2,300 more rows
# ℹ 1 more variable: geometry <MULTIPOLYGON [m]>
…
drug_offense_summary_all_cases <- thai_province %>%
  group_by(ADM1_EN, fiscal_year) %>%
  summarise(total_cases = sum(no_cases, na.rm = TRUE),
            geometry = first(geometry), .groups = 'drop')

# View the summarized data
print(drug_offense_summary_all_cases)

Simple feature collection with 462 features and 3 fields
Geometry type: MULTIPOLYGON
Dimension:     XY
Bounding box:  xmin: 325178.8 ymin: 620860.6 xmax: 1213656 ymax: 2263241
Projected CRS: WGS 84 / UTM zone 47N
# A tibble: 462 × 4
   ADM1_EN       fiscal_year total_cases                                geometry
   <chr>               <dbl>       <dbl>                      <MULTIPOLYGON [m]>
 1 Amnat Charoen        2017        5076 (((1137720 1809629, 1137724 1809622, 1…
 2 Amnat Charoen        2018        5651 (((1137720 1809629, 1137724 1809622, 1…
 3 Amnat Charoen        2019        7339 (((1137720 1809629, 1137724 1809622, 1…
 4 Amnat Charoen        2020        3949 (((1137720 1809629, 1137724 1809622, 1…
 5 Amnat Charoen        2021        8961 (((1137720 1809629, 1137724 1809622, 1…
 6 Amnat Charoen        2022        4459 (((1137720 1809629, 1137724 1809622, 1…
 7 Ang Thong            2017        1614 (((643472.8 1636469, 643496 1636423, 6…
 8 Ang Thong            2018        2717 (((643472.8 1636469, 643496 1636423, 6…
 9 Ang Thong            2019        2781 (((643472.8 1636469, 643496 1636423, 6…
10 Ang Thong            2020        2636 (((643472.8 1636469, 643496 1636423, 6…
# ℹ 452 more rows
…
